%YAML 1.1
%TAG !u! tag:unity3d.com,2011:
--- !u!221 &22100000
AnimatorOverrideController:
  m_ObjectHideFlags: 0
  m_CorrespondingSourceObject: {fileID: 0}
  m_PrefabInstance: {fileID: 0}
  m_PrefabAsset: {fileID: 0}
  m_Name: Zede'BroesheController
  m_Controller: {fileID: 9100000, guid: b4503b035c57f43478534ec1ed187cb1, type: 2}
  m_Clips:
  - m_OriginalClip: {fileID: 7400000, guid: 900a8864fa0db874991faede25151fbb, type: 2}
    m_OverrideClip: {fileID: 7400000, guid: a79531d1872157840a708886f20f3ead, type: 2}
  - m_OriginalClip: {fileID: 7400000, guid: 4f7455339225a27499b0fd1399e529a2, type: 2}
    m_OverrideClip: {fileID: 7400000, guid: 6170c892f48bafc4d9c992ff2953feec, type: 2}
  - m_OriginalClip: {fileID: 7400000, guid: 848d40516d8b52b4e8f3a472b1a6fbe6, type: 2}
    m_OverrideClip: {fileID: 7400000, guid: 02df404c5aca56146b75a7d6ae74910b, type: 2}
